…
``` r
time <- raw |> 
  # Wrangle
  janitor::clean_names() |>
  # Pick done
  filter(!is.na(start_time), !is.na(stop_time)) |> 
  mutate(difference = make_difftime(stop_time - start_time, units = "hour")) |> 
  # Add date
  mutate(date = date(start_time))
time
#> # A tibble: 21 × 5
#>    case_ref_number start_time          stop_time           difference date      
#>    <chr>           <dttm>              <dttm>              <drtn>     <date>    
#>  1 Meeting         2023-07-13 05:00:00 2023-07-13 05:40:00 0.6666666… 2023-07-13
#>  2 Other           2023-07-13 05:40:00 2023-07-13 05:51:10 0.1861219… 2023-07-13
#>  3 Other           2023-07-13 05:53:23 2023-07-13 05:53:25 0.0004794… 2023-07-13
#>  4 Meeting         2023-07-13 07:31:11 2023-07-13 09:48:35 2.2900258… 2023-07-13
#>  5 Other           2023-07-13 10:04:58 2023-07-13 10:14:53 0.1652886… 2023-07-13
#>  6 TiltDevProject… 2023-07-13 10:52:17 2023-07-13 11:58:49 1.1088472… 2023-07-13
#>  7 TiltDevProject… 2023-07-13 14:00:00 2023-07-13 15:30:00 1.5000000… 2023-07-13
#>  8 TiltDevProject… 2023-07-13 16:12:42 2023-07-13 16:30:36 0.2981397… 2023-07-13
#>  9 TiltDevProject… 2023-07-14 06:07:39 2023-07-14 06:08:12 0.0091425… 2023-07-14
#> 10 TiltDevProject… 2023-07-14 06:08:14 2023-07-14 06:44:46 0.6089452… 2023-07-14
#> # ℹ 11 more rows
```
…
